U.S Census Data & R
…
median_age <- get_acs(
  geography = "county",
  variables = "B01002_001",
  year = 2020
)

Getting data from the 2016-2020 5-year ACS

You may have also noticed throughout this process that the default method for printing data outputs on this document shows the first 10 rows of the dataset, starting with Alabama.

However, when exploring and analyzing data examining trends, extremes, and other clusterings are important. Below, the arrange() function sorts a dataset by values in one or more columns (dataset, column) and returns the sorted result in order to understand which counties are the youngest and oldest in the U.S. as measured by median age.

arrange(median_age, estimate) #youngest counties by median age, ascending order

# A tibble: 3,221 × 5
   GEOID NAME                          variable   estimate   moe
   <chr> <chr>                         <chr>         <dbl> <dbl>
 1 35011 De Baca County, New Mexico    B01002_001     22.2   6.9
 2 51678 Lexington city, Virginia      B01002_001     22.2   0.8
 3 16065 Madison County, Idaho         B01002_001     23.5   0.2
 4 46121 Todd County, South Dakota     B01002_001     23.6   0.6
 5 51750 Radford city, Virginia        B01002_001     23.7   0.6
 6 13053 Chattahoochee County, Georgia B01002_001     24     0.7
 7 02158 Kusilvak Census Area, Alaska  B01002_001     24.1   0.2
 8 49049 Utah County, Utah             B01002_001     25     0.1
 9 46027 Clay County, South Dakota     B01002_001     25.2   0.5
10 53075 Whitman County, Washington    B01002_001     25.2   0.2
# ℹ 3,211 more rows

arrange(median_age, desc(estimate)) #oldest counties by median age, descending order

# A tibble: 3,221 × 5
   GEOID NAME                            variable   estimate   moe
   <chr> <chr>                           <chr>         <dbl> <dbl>
 1 12119 Sumter County, Florida          B01002_001     68     0.3
 2 48301 Loving County, Texas            B01002_001     62.2  37.8
 3 48243 Jeff Davis County, Texas        B01002_001     61.3  36.8
 4 08027 Custer County, Colorado         B01002_001     60.1   3.4
 5 12015 Charlotte County, Florida       B01002_001     59.5   0.2
 6 51091 Highland County, Virginia       B01002_001     59.5   4.8
 7 35003 Catron County, New Mexico       B01002_001     59.4   2.6
 8 51133 Northumberland County, Virginia B01002_001     59.3   0.7
 9 26131 Ontonagon County, Michigan      B01002_001     59.1   0.5
10 48443 Terrell County, Texas           B01002_001     59.1   9.4
# ℹ 3,211 more rows

Another useful function is the filter() function, which queries a dataset for rows where a given condition evaluates to TRUE, and retains those rows only. When analysts need to narrow down data by their characteristics, this function can answer questions like the one below: “how many counties in the US have a median age of 50 or older?”.

filter(median_age, estimate >= 50)

# A tibble: 218 × 5
   GEOID NAME                              variable   estimate   moe
   <chr> <chr>                             <chr>         <dbl> <dbl>
 1 02105 Hoonah-Angoon Census Area, Alaska B01002_001     52.1   2.9
 2 04007 Gila County, Arizona              B01002_001     50.4   0.2
 3 04012 La Paz County, Arizona            B01002_001     57.4   0.6
 4 04015 Mohave County, Arizona            B01002_001     52.3   0.2
 5 04025 Yavapai County, Arizona           B01002_001     54.1   0.2
 6 05005 Baxter County, Arkansas           B01002_001     52.3   0.5
 7 05089 Marion County, Arkansas           B01002_001     52.1   0.8
 8 05097 Montgomery County, Arkansas       B01002_001     50.6   0.8
 9 05137 Stone County, Arkansas            B01002_001     50     0.5
10 06009 Calaveras County, California      B01002_001     52.8   0.6
# ℹ 208 more rows

While many of the functions above focus on rows, separate() focuses on columns. Similar to the “text to columns” function on Excel, below the NAME column is split into two columns where one retains the county name and the other retains the state. The default tidycensus treats the NAME more as a descriptor–in this case formatted as “X County, Y State”. This is more intuitive than the GEOID, but separating the geographic scales into respective categories increases comparability across different datasets for analysts.

separate(
  median_age,
  NAME,
  into = c("county", "state"),
  sep = ", "
)

# A tibble: 3,221 × 6
   GEOID county          state   variable   estimate   moe
   <chr> <chr>           <chr>   <chr>         <dbl> <dbl>
 1 01001 Autauga County  Alabama B01002_001     38.6   0.6
 2 01003 Baldwin County  Alabama B01002_001     43.2   0.4
 3 01005 Barbour County  Alabama B01002_001     40.1   0.6
 4 01007 Bibb County     Alabama B01002_001     39.9   1.2
 5 01009 Blount County   Alabama B01002_001     41     0.5
 6 01011 Bullock County  Alabama B01002_001     39.7   1.9
 7 01013 Butler County   Alabama B01002_001     41.2   0.6
 8 01015 Calhoun County  Alabama B01002_001     39.5   0.4
 9 01017 Chambers County Alabama B01002_001     41.9   0.7
10 01019 Cherokee County Alabama B01002_001     46.8   0.5
# ℹ 3,211 more rows
…
Getting data from the 2018 1-year ACS

The 1-year ACS provides data for geographies with populations of 65,000 and greater.

Getting data from the 2019 1-year ACS

The 1-year ACS provides data for geographies with populations of 65,000 and greater.

map_dfr() then takes three arguments above–first is that map_dfr() will iterate over the years vector. Second is a formula specified with the tilde (~) operator and curly braces ({…}), as the code inside the curly braces is run once for each element of years, where local variable .x inside the formula takes on each value of years sequentially. We are running the equivalent of get_acs() for each year and the result is combined into a single output data frame. The .id argument creates a new column in the data frame for the new values, naming that column year.

college_by_year %>% 
  arrange(NAME, variable, year)

# A tibble: 920 × 8
   year  GEOID NAME              variable estimate   moe summary_est summary_moe
   <chr> <chr> <chr>             <chr>       <dbl> <dbl>       <dbl>       <dbl>
 1 2010  08001 Adams County, Co… B15002_…    20501  1983      275849         790
 2 2011  08001 Adams County, Co… B15002_…    21233  2124      281231         865
 3 2012  08001 Adams County, Co… B15002_…    19238  2020      287924         693
 4 2013  08001 Adams County, Co… B15002_…    23818  2445      295122         673
 5 2014  08001 Adams County, Co… B15002_…    20255  1928      304394         541
 6 2015  08001 Adams County, Co… B15002_…    22962  2018      312281         705
 7 2016  08001 Adams County, Co… B15002_…    25744  2149      318077         525
 8 2017  08001 Adams County, Co… B15002_…    26159  2320      324185         562
 9 2018  08001 Adams County, Co… B15002_…    28113  2078      331247         955
10 2019  08001 Adams County, Co… B15002_…    27552  2070      336931         705
# ℹ 910 more rows
…
